…
tidy_h2 <- h2a_data %>%
  dplyr::select(abb, job_title, year) %>%
  filter(!is.na(abb)) %>%
  mutate(id = row_number()) %>%
  unnest_tokens(word, job_title)
tidy_h2 %>%
  count(word) %>%
  arrange(desc(n))
```

```
## # A tibble: 1,293 x 2
##    word            n
##    <chr>       <int>
##  1 farm        39081
##  2 crop        34410
##  3 farmworker  31425
##  4 worker      27488
##  5 and         22101
##  6 laborers    20738
##  7 diversified 19297
##  8 farmworkers 14285
##  9 workers     12259
## 10 laborer     10588
## # ... with 1,283 more rows
```
…
